[
    {"name": "Dipto", "email": "ardipta82@gmail.com"},
    {"name": "sfdg", "email": "xdfg@gmail.com"},
    {"name": "cvvc", "email": "jhg@gmail.com"},
    {"name": "Dipsreto", "email": "sfdg@gmail.com"},
    {"name": "Ddcgvipto", "email": "sfdg@gmail.com"},
    {"name": "fdgf", "email": "sfdgc@gmail.com"},
    {"name": "cxv", "email": "sdfg@gmail.com"},
    {"name": "fdsger", "email": "ffdfg@gmail.com"},
    {"name": "grsdg", "email": "adfg@gmail.com"},
    {"name": "fsdg", "email": "cxh@gmail.com"},
    {"name": "sdfgv", "email": "hjjcfg@gmail.com"},
    {"name": "gfhfg", "email": "ardgrdgipta82@gmail.com"},
    {"name": "vdcfgfd", "email": "fdg@gmail.com"},
    {"name": "zcxg", "email": "ardipsdfgta82@gmail.com"},
    {"name": "wad", "email": "sdfg@gmail.com"}
]